c:\users\miguel\source\repos\practicasu-tad\redes\practica2\p2-agario\enettest\enetwrapper\debug\enetwrapper.pdb
c:\users\miguel\source\repos\practicasu-tad\redes\practica2\p2-agario\enettest\enetwrapper\debug\enetwrapper.idb
c:\users\miguel\source\repos\practicasu-tad\redes\practica2\p2-agario\enettest\enetwrapper\debug\buffer.obj
c:\users\miguel\source\repos\practicasu-tad\redes\practica2\p2-agario\enettest\enetwrapper\debug\clientenet.obj
c:\users\miguel\source\repos\practicasu-tad\redes\practica2\p2-agario\enettest\enetwrapper\debug\hostenet.obj
c:\users\miguel\source\repos\practicasu-tad\redes\practica2\p2-agario\enettest\enetwrapper\debug\packetenet.obj
c:\users\miguel\source\repos\practicasu-tad\redes\practica2\p2-agario\enettest\enetwrapper\debug\peerenet.obj
c:\users\miguel\source\repos\practicasu-tad\redes\practica2\p2-agario\enettest\enetwrapper\debug\serializable.obj
c:\users\miguel\source\repos\practicasu-tad\redes\practica2\p2-agario\enettest\enetwrapper\debug\serverenet.obj
c:\users\miguel\source\repos\practicasu-tad\redes\practica2\p2-agario\project\debug\enetwrapper.lib
c:\users\miguel\source\repos\practicasu-tad\redes\practica2\p2-agario\enettest\enetwrapper\debug\enetwrapper.tlog\cl.command.1.tlog
c:\users\miguel\source\repos\practicasu-tad\redes\practica2\p2-agario\enettest\enetwrapper\debug\enetwrapper.tlog\cl.read.1.tlog
c:\users\miguel\source\repos\practicasu-tad\redes\practica2\p2-agario\enettest\enetwrapper\debug\enetwrapper.tlog\cl.write.1.tlog
c:\users\miguel\source\repos\practicasu-tad\redes\practica2\p2-agario\enettest\enetwrapper\debug\enetwrapper.tlog\lib-link.read.1.tlog
c:\users\miguel\source\repos\practicasu-tad\redes\practica2\p2-agario\enettest\enetwrapper\debug\enetwrapper.tlog\lib-link.write.1.tlog
c:\users\miguel\source\repos\practicasu-tad\redes\practica2\p2-agario\enettest\enetwrapper\debug\enetwrapper.tlog\lib.command.1.tlog
